D:\Documentos\NetBeansProjects\PracticaExamen\src\main\java\modelo\RegistroPaciente.java
D:\Documentos\NetBeansProjects\PracticaExamen\src\main\java\modelo\Paciente.java
D:\Documentos\NetBeansProjects\PracticaExamen\src\main\java\Vista\PanelBotones.java
D:\Documentos\NetBeansProjects\PracticaExamen\src\main\java\Vista\GUIPractica.java
D:\Documentos\NetBeansProjects\PracticaExamen\src\main\java\controlador\Controlador.java
D:\Documentos\NetBeansProjects\PracticaExamen\src\main\java\Vista\PanelDatos.java
